Name,URL,Country,Cloudflare proxy,Analytics,[Observatory](https://developer.mozilla.org/en-US/observatory/docs/faq) grade,Status
exozyme (Official),[https://pixivfe.exozy.me](https://pixivfe.exozy.me),US,No,No,[![MDN HTTP Observatory Grade](https://img.shields.io/mozilla-observatory/grade-score/pixivfe.exozy.me?label=)](https://developer.mozilla.org/en-US/observatory/analyze?host=pixivfe.exozy.me),![Status](https://img.shields.io/website?url=https%3A%2F%2Fpixivfe.exozy.me&label=status)
dragongoose,[https://pixivfe.drgns.space](https://pixivfe.drgns.space),US,No,No,[![MDN HTTP Observatory Grade](https://img.shields.io/mozilla-observatory/grade-score/pixivfe.drgns.space?label=)](https://developer.mozilla.org/en-US/observatory/analyze?host=pixivfe.drgns.space),![Status](https://img.shields.io/website?url=https%3A%2F%2Fpixivfe.drgns.space&label=status)
ducks.party,[https://pixivfe.ducks.party](https://pixivfe.ducks.party),NL,No,No,[![MDN HTTP Observatory Grade](https://img.shields.io/mozilla-observatory/grade-score/pixivfe.ducks.party?label=)](https://developer.mozilla.org/en-US/observatory/analyze?host=pixivfe.ducks.party),![Status](https://img.shields.io/website?url=https%3A%2F%2Fpixivfe.ducks.party&label=status)
perennialte.ch,[https://pixiv.perennialte.ch](https://pixiv.perennialte.ch),AU,No,No,[![MDN HTTP Observatory Grade](https://img.shields.io/mozilla-observatory/grade-score/pixiv.perennialte.ch?label=)](https://developer.mozilla.org/en-US/observatory/analyze?host=pixiv.perennialte.ch),![Status](https://img.shields.io/website?url=https%3A%2F%2Fpixiv.perennialte.ch&label=status)
darkness.services,[https://pixivfe.darkness.services](https://pixivfe.darkness.services),US,Yes,No,[![MDN HTTP Observatory Grade](https://img.shields.io/mozilla-observatory/grade-score/pixivfe.darkness.services?label=)](https://developer.mozilla.org/en-US/observatory/analyze?host=pixivfe.darkness.services),![Status](https://img.shields.io/website?url=https%3A%2F%2Fpixivfe.darkness.services&label=status)
thebunny.zone,[https://pixivfe.thebunny.zone](https://pixivfe.thebunny.zone),HR,No,No,[![MDN HTTP Observatory Grade](https://img.shields.io/mozilla-observatory/grade-score/pixivfe.thebunny.zone?label=)](https://developer.mozilla.org/en-US/observatory/analyze?host=pixivfe.thebunny.zone),![Status](https://img.shields.io/website?url=https%3A%2F%2Fpixivfe.thebunny.zone&label=status)
